…
deaths_by_location %>% 
  group_by(id, mun_id) %>%
  summarize(tot_before = sum(tot_before), 
            tot_after=sum(tot_after)) %>%
  arrange(desc(tot_after)) %>%
  print(n = 10)
```

    ## # A tibble: 44 x 4
    ## # Groups:   id [43]
    ##    id    mun_id tot_before tot_after
    ##    <chr>  <dbl>      <int>     <int>
    ##  1 134       48          0         2
    ##  2 14        30          0         2
    ##  3 171       11          0         2
    ##  4 259       29          0         2
    ##  5 426       37          0         2
    ##  6 752       31          0         2
    ##  7 152       53          0         1
    ##  8 237        8          0         1
    ##  9 269       52          0         1
    ## 10 291        5          0         1
    ## # ... with 34 more rows
…
